<svg width="16" height="16" viewBox="0 0 16 16" fill="none" xmlns="http://www.w3.org/2000/svg">
<path fill-rule="evenodd" clip-rule="evenodd" d="M6.03033 2.46973L4.96967 3.53039L9.43934 8.00006L4.96967 12.4697L6.03033 13.5304L11.5607 8.00006L6.03033 2.46973Z" fill="#006ED3"/>
</svg>
