<svg width="11" height="18" viewBox="0 0 11 18" fill="none" xmlns="http://www.w3.org/2000/svg">
<path fill-rule="evenodd" clip-rule="evenodd" d="M9.29289 17.7071L10.7071 16.2929L3.41421 9L10.7071 1.70711L9.29289 0.292892L0.585784 9L9.29289 17.7071Z" fill="#424242"/>
</svg>
