<svg width="16" height="16" viewBox="0 0 16 16" fill="none" xmlns="http://www.w3.org/2000/svg">
<path d="M7.9999 0C4.9045 0 2.3999 2.50459 2.3999 5.6C2.3999 8.87942 5.81303 13.377 7.31005 15.192C7.53027 15.459 7.64037 15.5925 7.79279 15.6485C7.91953 15.6952 8.08027 15.6952 8.20702 15.6485C8.35943 15.5925 8.46954 15.459 8.68975 15.192C10.1868 13.377 13.5999 8.87942 13.5999 5.6C13.5999 2.50462 11.0965 0 7.9999 0ZM7.9999 7.6C6.8959 7.6 5.9999 6.704 5.9999 5.6C5.9999 4.496 6.8959 3.6 7.9999 3.6C9.1039 3.6 9.9999 4.496 9.9999 5.6C9.9999 6.704 9.1039 7.6 7.9999 7.6Z" fill="#006ED3"/>
</svg>
